…
# (1) Create <gdp_constant> var:
# Select for “ISO” in GDP worksheet that matches “COUNTRY” 3-letter variable in IEA data
# Select for year 2015 only - (column W)
gdp_tbl1 <- gdp_tbl1 %>% 
  filter(ISO %in% (tbl_allcountries_2016_2step %>% distinct(COUNTRY) %>% pull(COUNTRY))) %>% 
  select(COUNTRY = ISO, gdp_constant = `2015`) %>% 
  mutate(gdp_constant = as.numeric(gdp_constant))

gdp_tbl1
```

    ## # A tibble: 22 x 2
    ##    COUNTRY gdp_constant
    ##    <chr>          <dbl>
    ##  1 BGR           18114.
    ##  2 CHL           22205.
    ##  3 COL           12929.
    ##  4 HRV           20750.
    ##  5 DNK           44327.
    ##  6 DOM           14132.
    ##  7 EST           26894.
    ##  8 FIN           38610.
    ##  9 HKG           53457.
    ## 10 ITA           33831.
    ## # ... with 12 more rows
    ## # i Use `print(n = ...)` to see more rows
…
# (4) Create logged version of this var called “log_gdp_currentusd”
gdp_tbl2 <- gdp_tbl2 %>% 
  mutate(log_gdp_currentusd = log(gdp_currentusd))

gdp_tbl <- left_join(gdp_tbl1, gdp_tbl2, by = "COUNTRY")

gdp_tbl
```

    ## # A tibble: 22 x 5
    ##    COUNTRY gdp_constant log_gdp_constant gdp_currentusd log_gdp_currentusd
    ##    <chr>          <dbl>            <dbl>          <dbl>              <dbl>
    ##  1 BGR           18114.             9.80           50.2               3.92
    ##  2 CHL           22205.            10.0           244.                5.50
    ##  3 COL           12929.             9.47          293.                5.68
    ##  4 HRV           20750.             9.94           49.5               3.90
    ##  5 DNK           44327.            10.7           301.                5.71
    ##  6 DOM           14132.             9.56           68.9               4.23
    ##  7 EST           26894.            10.2            22.6               3.12
    ##  8 FIN           38610.            10.6           233.                5.45
    ##  9 HKG           53457.            10.9           309.                5.73
    ## 10 ITA           33831.            10.4          1834.                7.51
    ## # ... with 12 more rows
    ## # i Use `print(n = ...)` to see more rows
…
